Module 2 - Data import and manipulation
…
The `flights` dataset from the package **`nycflights13`** which contains 19 variables of 336,776 flights that departed from New York City in 2013<sup>1</sup>. 

```r
library(nycflights13)
flights
```

.footnote[
[1] The data comes from the US Bureau of Transportation Statistics, and is documented in ?flights.
]

--

```
#> # A tibble: 336,776 × 19
#>    year month   day dep_time sched_dep_time dep_delay arr_time sched_arr_time arr_delay
#>   <int> <int> <int>    <int>          <int>     <dbl>    <int>          <int>     <dbl>
#> 1  2013     1     1      517            515         2      830            819        11
#> 2  2013     1     1      533            529         4      850            830        20
#> 3  2013     1     1      542            540         2      923            850        33
#> 4  2013     1     1      544            545        -1     1004           1022       -18
#> 5  2013     1     1      554            600        -6      812            837       -25
#> 6  2013     1     1      554            558        -4      740            728        12
#> 7  2013     1     1      555            600        -5      913            854        19
#> # ℹ 336,769 more rows
#> # ℹ 10 more variables: carrier <chr>, flight <int>, tailnum <chr>, origin <chr>, dest <chr>,
#> #   air_time <dbl>, distance <dbl>, hour <dbl>, minute <dbl>, time_hour <dttm>
```
…
--

.pull-right[

```r
flights %>% 
  count(origin, dest) # %>% print(n = Inf)
```

```
#> # A tibble: 224 × 3
#>    origin dest      n
#>    <chr>  <chr> <int>
#>  1 EWR    ALB     439
#>  2 EWR    ANC       8
#>  3 EWR    ATL    5022
#>  4 EWR    AUS     968
#>  5 EWR    AVL     265
#>  6 EWR    BDL     443
#>  7 EWR    BNA    2336
#>  8 EWR    BOS    5327
#>  9 EWR    BQN     297
#> 10 EWR    BTV     931
#> 11 EWR    BUF     973
#> # ℹ 213 more rows
```
…
Uses conditional selection

```r
flights %>% 
  filter(dep_delay > 120)
```

```
#> # A tibble: 9,723 × 19
#>     year month   day dep_time sched_dep_time dep_delay arr_time sched_arr_time arr_delay
#>    <int> <int> <int>    <int>          <int>     <dbl>    <int>          <int>     <dbl>
#>  1  2013     1     1      848           1835       853     1001           1950       851
#>  2  2013     1     1      957            733       144     1056            853       123
#>  3  2013     1     1     1114            900       134     1447           1222       145
#>  4  2013     1     1     1540           1338       122     2020           1825       115
#>  5  2013     1     1     1815           1325       290     2120           1542       338
#>  6  2013     1     1     1842           1422       260     1958           1535       263
#>  7  2013     1     1     1856           1645       131     2212           2005       127
#>  8  2013     1     1     1934           1725       129     2126           1855       151
#>  9  2013     1     1     1938           1703       155     2109           1823       166
#> 10  2013     1     1     1942           1705       157     2124           1830       174
#> 11  2013     1     1     2006           1630       216     2230           1848       222
#> # ℹ 9,712 more rows
#> # ℹ 10 more variables: carrier <chr>, flight <int>, tailnum <chr>, origin <chr>, dest <chr>,
#> #   air_time <dbl>, distance <dbl>, hour <dbl>, minute <dbl>, time_hour <dttm>
```
…
---

# `arrange()` arrange and sort rows

On one, more multiple, columns

```r
flights %>%  
  arrange(year, month, day, dep_time)
```

```
#> # A tibble: 336,776 × 19
#>     year month   day dep_time sched_dep_time dep_delay arr_time sched_arr_time arr_delay
#>    <int> <int> <int>    <int>          <int>     <dbl>    <int>          <int>     <dbl>
#>  1  2013     1     1      517            515         2      830            819        11
#>  2  2013     1     1      533            529         4      850            830        20
#>  3  2013     1     1      542            540         2      923            850        33
#>  4  2013     1     1      544            545        -1     1004           1022       -18
#>  5  2013     1     1      554            600        -6      812            837       -25
#>  6  2013     1     1      554            558        -4      740            728        12
#>  7  2013     1     1      555            600        -5      913            854        19
#>  8  2013     1     1      557            600        -3      709            723       -14
#>  9  2013     1     1      557            600        -3      838            846        -8
#> 10  2013     1     1      558            600        -2      753            745         8
#> 11  2013     1     1      558            600        -2      849            851        -2
#> # ℹ 336,765 more rows
#> # ℹ 10 more variables: carrier <chr>, flight <int>, tailnum <chr>, origin <chr>, dest <chr>,
#> #   air_time <dbl>, distance <dbl>, hour <dbl>, minute <dbl>, time_hour <dttm>
```

---

# `arrange()` arrange and sort rows

Default is ascending order, use `desc()` for decending

```r
flights %>%  
  arrange(year, desc(month), day, dep_time)
```

```
#> # A tibble: 336,776 × 19
#>     year month   day dep_time sched_dep_time dep_delay arr_time sched_arr_time arr_delay
#>    <int> <int> <int>    <int>          <int>     <dbl>    <int>          <int>     <dbl>
#>  1  2013    12     1       13           2359        14      446            445         1
#>  2  2013    12     1       17           2359        18      443            437         6
#>  3  2013    12     1      453            500        -7      636            651       -15
#>  4  2013    12     1      520            515         5      749            808       -19
#>  5  2013    12     1      536            540        -4      845            850        -5
#>  6  2013    12     1      540            550       -10     1005           1027       -22
#>  7  2013    12     1      541            545        -4      734            755       -21
#>  8  2013    12     1      546            545         1      826            835        -9
#>  9  2013    12     1      549            600       -11      648            659       -11
#> 10  2013    12     1      550            600       -10      825            854       -29
#> 11  2013    12     1      554            600        -6      827            849       -22
#> # ℹ 336,765 more rows
#> # ℹ 10 more variables: carrier <chr>, flight <int>, tailnum <chr>, origin <chr>, dest <chr>,
#> #   air_time <dbl>, distance <dbl>, hour <dbl>, minute <dbl>, time_hour <dttm>
```

---

# `distinct()` find unique values

On one, more multiple, columns

```r
# Find all unique origin and destination pairs
flights %>% 
  distinct(origin, dest)
```

```
#> # A tibble: 224 × 2
#>    origin dest 
#>    <chr>  <chr>
#>  1 EWR    IAH  
#>  2 LGA    IAH  
#>  3 JFK    MIA  
#>  4 JFK    BQN  
#>  5 LGA    ATL  
#>  6 EWR    ORD  
#>  7 EWR    FLL  
#>  8 LGA    IAD  
#>  9 JFK    MCO  
#> 10 LGA    ORD  
#> 11 JFK    PBI  
#> # ℹ 213 more rows
```

---

# `distinct()` unique values, and other columns

`.keep_all = TRUE` returns all other columns of the first occurrence of distinct rows

```r
flights %>%  
  distinct(origin, dest, .keep_all = TRUE)
```

```
#> # A tibble: 224 × 19
#>     year month   day dep_time sched_dep_time dep_delay arr_time sched_arr_time arr_delay
#>    <int> <int> <int>    <int>          <int>     <dbl>    <int>          <int>     <dbl>
#>  1  2013     1     1      517            515         2      830            819        11
#>  2  2013     1     1      533            529         4      850            830        20
#>  3  2013     1     1      542            540         2      923            850        33
#>  4  2013     1     1      544            545        -1     1004           1022       -18
#>  5  2013     1     1      554            600        -6      812            837       -25
#>  6  2013     1     1      554            558        -4      740            728        12
#>  7  2013     1     1      555            600        -5      913            854        19
#>  8  2013     1     1      557            600        -3      709            723       -14
#>  9  2013     1     1      557            600        -3      838            846        -8
#> 10  2013     1     1      558            600        -2      753            745         8
#> 11  2013     1     1      558            600        -2      849            851        -2
#> # ℹ 213 more rows
#> # ℹ 10 more variables: carrier <chr>, flight <int>, tailnum <chr>, origin <chr>, dest <chr>,
#> #   air_time <dbl>, distance <dbl>, hour <dbl>, minute <dbl>, time_hour <dttm>
```
…
```r
flights %>% 
  mutate(
    gain = dep_delay - arr_delay,
    speed = distance / air_time * 60,
    .before = 1 # so they are positioned before the first column
  )
```

```
#> # A tibble: 336,776 × 21
#>    gain speed  year month   day dep_time sched_dep_time dep_delay arr_time sched_arr_time
#>   <dbl> <dbl> <int> <int> <int>    <int>          <int>     <dbl>    <int>          <int>
#> 1    -9  370.  2013     1     1      517            515         2      830            819
#> 2   -16  374.  2013     1     1      533            529         4      850            830
#> 3   -31  408.  2013     1     1      542            540         2      923            850
#> 4    17  517.  2013     1     1      544            545        -1     1004           1022
#> 5    19  394.  2013     1     1      554            600        -6      812            837
#> 6   -16  288.  2013     1     1      554            558        -4      740            728
#> 7   -24  404.  2013     1     1      555            600        -5      913            854
#> # ℹ 336,769 more rows
#> # ℹ 11 more variables: arr_delay <dbl>, carrier <chr>, flight <int>, tailnum <chr>,
#> #   origin <chr>, dest <chr>, air_time <dbl>, distance <dbl>, hour <dbl>, minute <dbl>,
#> #   time_hour <dttm>
```
…
---

# `select()` pick or remove columns by name

.pull-left[

```r
flights %>%  
  select(year, month, day)
```

```
#> # A tibble: 336,776 × 3
#>    year month   day
#>   <int> <int> <int>
#> 1  2013     1     1
#> 2  2013     1     1
#> 3  2013     1     1
#> 4  2013     1     1
#> 5  2013     1     1
#> 6  2013     1     1
#> 7  2013     1     1
#> # ℹ 336,769 more rows
```
…
---

# Other column functions

`rename()` renames columns

```r
flights %>% 
  #rename(new_name = old_name)
  rename(YEAR = year)
```

```
#> # A tibble: 336,776 × 19
#>    YEAR month   day dep_time sched_dep_time dep_delay arr_time sched_arr_time arr_delay
#>   <int> <int> <int>    <int>          <int>     <dbl>    <int>          <int>     <dbl>
#> 1  2013     1     1      517            515         2      830            819        11
#> 2  2013     1     1      533            529         4      850            830        20
#> 3  2013     1     1      542            540         2      923            850        33
#> 4  2013     1     1      544            545        -1     1004           1022       -18
#> 5  2013     1     1      554            600        -6      812            837       -25
#> 6  2013     1     1      554            558        -4      740            728        12
#> 7  2013     1     1      555            600        -5      913            854        19
#> # ℹ 336,769 more rows
#> # ℹ 10 more variables: carrier <chr>, flight <int>, tailnum <chr>, origin <chr>, dest <chr>,
#> #   air_time <dbl>, distance <dbl>, hour <dbl>, minute <dbl>, time_hour <dttm>
```

---

# Other column functions

`relocate()` allows you to move columns around -> maybe to group similar columns

```r
# Move columns between year:day after dep_delay
flights %>% 
  relocate(year:day, .after = dep_delay)
```

```
#> # A tibble: 336,776 × 19
#>   dep_time sched_dep_time dep_delay  year month   day arr_time sched_arr_time arr_delay
#>      <int>          <int>     <dbl> <int> <int> <int>    <int>          <int>     <dbl>
#> 1      517            515         2  2013     1     1      830            819        11
#> 2      533            529         4  2013     1     1      850            830        20
#> 3      542            540         2  2013     1     1      923            850        33
#> 4      544            545        -1  2013     1     1     1004           1022       -18
#> 5      554            600        -6  2013     1     1      812            837       -25
#> 6      554            558        -4  2013     1     1      740            728        12
#> 7      555            600        -5  2013     1     1      913            854        19
#> # ℹ 336,769 more rows
#> # ℹ 10 more variables: carrier <chr>, flight <int>, tailnum <chr>, origin <chr>, dest <chr>,
#> #   air_time <dbl>, distance <dbl>, hour <dbl>, minute <dbl>, time_hour <dttm>
```
…
`group_by()` creates a **grouping attribute** for you data
  - subsequent row operations are conducted by group

```r
flights %>% 
  group_by(month)
```
--

```
#> # A tibble: 336,776 × 19
*#> # Groups:   month [12]
#>    year month   day dep_time sched_dep_time dep_delay arr_time sched_arr_time arr_delay
#>   <int> <int> <int>    <int>          <int>     <dbl>    <int>          <int>     <dbl>
#> 1  2013     1     1      517            515         2      830            819        11
#> 2  2013     1     1      533            529         4      850            830        20
#> 3  2013     1     1      542            540         2      923            850        33
#> 4  2013     1     1      544            545        -1     1004           1022       -18
#> 5  2013     1     1      554            600        -6      812            837       -25
#> 6  2013     1     1      554            558        -4      740            728        12
#> 7  2013     1     1      555            600        -5      913            854        19
#> # ℹ 336,769 more rows
#> # ℹ 10 more variables: carrier <chr>, flight <int>, tailnum <chr>, origin <chr>, dest <chr>,
#> #   air_time <dbl>, distance <dbl>, hour <dbl>, minute <dbl>, time_hour <dttm>
```
…
---

# Multiple `group_by()`

Can create groups by multiple variables

```r
flights %>% 
  group_by(month, day) 
```
--

```
#> # A tibble: 336,776 × 19
*#> # Groups:   month, day [365]
#>    year month   day dep_time sched_dep_time dep_delay arr_time sched_arr_time arr_delay
#>   <int> <int> <int>    <int>          <int>     <dbl>    <int>          <int>     <dbl>
#> 1  2013     1     1      517            515         2      830            819        11
#> 2  2013     1     1      533            529         4      850            830        20
#> 3  2013     1     1      542            540         2      923            850        33
#> 4  2013     1     1      544            545        -1     1004           1022       -18
#> 5  2013     1     1      554            600        -6      812            837       -25
#> 6  2013     1     1      554            558        -4      740            728        12
#> 7  2013     1     1      555            600        -5      913            854        19
#> # ℹ 336,769 more rows
#> # ℹ 10 more variables: carrier <chr>, flight <int>, tailnum <chr>, origin <chr>, dest <chr>,
#> #   air_time <dbl>, distance <dbl>, hour <dbl>, minute <dbl>, time_hour <dttm>
```
…
```r
flights %>% 
  group_by(month, day) %>% 
  summarise(n = n())
```

```
#> `summarise()` has grouped output by 'month'.
#> You can override using the `.groups`
#> argument.
```

```
#> # A tibble: 365 × 3
*#> # Groups:   month [12]
#>   month   day     n
#>   <int> <int> <int>
#> 1     1     1   842
#> 2     1     2   943
#> 3     1     3   914
#> 4     1     4   915
#> 5     1     5   720
#> 6     1     6   832
#> 7     1     7   933
#> # ℹ 358 more rows
```
…
--

.pull-right[

We often want to drop the groups<sup>1</sup>

```r
flights %>% 
  group_by(month, day) %>% 
  summarise(n = n(), 
            .groups = 'drop')
```

```
#> # A tibble: 365 × 3
#>   month   day     n
#>   <int> <int> <int>
#> 1     1     1   842
#> 2     1     2   943
#> 3     1     3   914
#> 4     1     4   915
#> 5     1     5   720
#> 6     1     6   832
#> 7     1     7   933
#> # ℹ 358 more rows
```
…
---

# `ungroup()` removes groups

You may use `group_by()` for other reasons, but remember to **remove** it

```r
flights %>% 
  group_by(month, day) %>% 
  # do some action %>% 
  ungroup()
```

```
#> # A tibble: 336,776 × 19
#>    year month   day dep_time sched_dep_time dep_delay arr_time sched_arr_time arr_delay
#>   <int> <int> <int>    <int>          <int>     <dbl>    <int>          <int>     <dbl>
#> 1  2013     1     1      517            515         2      830            819        11
#> 2  2013     1     1      533            529         4      850            830        20
#> 3  2013     1     1      542            540         2      923            850        33
#> 4  2013     1     1      544            545        -1     1004           1022       -18
#> 5  2013     1     1      554            600        -6      812            837       -25
#> 6  2013     1     1      554            558        -4      740            728        12
#> 7  2013     1     1      555            600        -5      913            854        19
#> # ℹ 336,769 more rows
#> # ℹ 10 more variables: carrier <chr>, flight <int>, tailnum <chr>, origin <chr>, dest <chr>,
#> #   air_time <dbl>, distance <dbl>, hour <dbl>, minute <dbl>, time_hour <dttm>
```
…
The primary use of `left_join()` is to add in additional metadata

--

.pull-left[

The number of flights at each hour

```r
n_flights_hourly
```

```
#> # A tibble: 6,266 × 2
#>    time_hour           n_flights
#>    <dttm>                  <int>
#>  1 2013-01-01 05:00:00         2
#>  2 2013-01-01 06:00:00        18
#>  3 2013-01-01 07:00:00        12
#>  4 2013-01-01 08:00:00        20
#>  5 2013-01-01 09:00:00        19
#>  6 2013-01-01 10:00:00        18
#>  7 2013-01-01 11:00:00        11
#>  8 2013-01-01 12:00:00        22
#>  9 2013-01-01 13:00:00        28
#> 10 2013-01-01 14:00:00        18
#> # ℹ 6,256 more rows
```

]

--

.pull-right[

Weather data at each hour

```r
weather_hourly
```

```
#> # A tibble: 8,703 × 3
#>    time_hour            temp humid
#>    <dttm>              <dbl> <dbl>
#>  1 2013-01-01 01:00:00  39.0  59.4
#>  2 2013-01-01 02:00:00  39.0  61.6
#>  3 2013-01-01 03:00:00  39.0  64.4
#>  4 2013-01-01 04:00:00  39.9  62.2
#>  5 2013-01-01 05:00:00  39.0  64.4
#>  6 2013-01-01 06:00:00  37.9  67.2
#>  7 2013-01-01 07:00:00  39.0  64.4
#>  8 2013-01-01 08:00:00  39.9  62.2
#>  9 2013-01-01 09:00:00  39.9  62.2
#> 10 2013-01-01 10:00:00  41    59.6
#> # ℹ 8,693 more rows
```
…
a variable/column where the values match between datasets

- `time_hour` is the common variable here

- join matching rows from `weather_hourly` to `n_flights_hourly` by `time_hour`  

```r
n_flights_hourly %>% 
  left_join(weather_hourly, by = 'time_hour')
```

--

```
#> # A tibble: 6,266 × 4
#>   time_hour           n_flights  temp humid
#>   <dttm>                  <int> <dbl> <dbl>
#> 1 2013-01-01 05:00:00         2  39.0  64.4
#> 2 2013-01-01 06:00:00        18  37.9  67.2
#> 3 2013-01-01 07:00:00        12  39.0  64.4
#> 4 2013-01-01 08:00:00        20  39.9  62.2
#> 5 2013-01-01 09:00:00        19  39.9  62.2
#> 6 2013-01-01 10:00:00        18  41    59.6
#> 7 2013-01-01 11:00:00        11  41    57.1
#> 8 2013-01-01 12:00:00        22  NA    NA  
#> # ℹ 6,258 more rows
```
…
