Module 3
…
]

--

.pull-right[

.large[Long]

```r
gene_data_long
```

```
#> # A tibble: 30 × 4
#>    Trt     Rep Gene  Count
#>    <chr> <int> <chr> <int>
#>  1 A         1 Gene1    10
#>  2 A         1 Gene2     6
#>  3 A         1 Gene3    11
#>  4 A         1 Gene4     7
#>  5 A         1 Gene5     8
#>  6 A         2 Gene1    10
#>  7 A         2 Gene2    10
#>  8 A         2 Gene3     5
#>  9 A         2 Gene4     9
#> 10 A         2 Gene5     9
#> 11 A         3 Gene1    10
#> 12 A         3 Gene2     6
#> 13 A         3 Gene3     3
#> # ℹ 17 more rows
```
…
